This is BibTeX, Version 0.99d (TeX Live 2022/dev/Debian)
Capacity: max_strings=200000, hash_size=200000, hash_prime=170003
The top-level auxiliary file: paper_diff.aux
The style file: apsrev4-2.bst
Reallocated singl_function (elt_size=4) to 100 items from 50.
Reallocated singl_function (elt_size=4) to 100 items from 50.
Reallocated singl_function (elt_size=4) to 100 items from 50.
Reallocated singl_function (elt_size=4) to 100 items from 50.
Reallocated singl_function (elt_size=4) to 100 items from 50.
Reallocated singl_function (elt_size=4) to 100 items from 50.
Reallocated singl_function (elt_size=4) to 100 items from 50.
Reallocated wiz_functions (elt_size=4) to 6000 items from 3000.
Reallocated singl_function (elt_size=4) to 100 items from 50.
Database file #1: paper_diffNotes.bib
Database file #2: paper_bib.bib
You're missing a field name---line 831 of file paper_bib.bib
 : 
 : % TITLE = {Fundamentals of Plasma Phys.~Control.~Fusion},
(Error may have been on previous line)
I'm skipping whatever remains of this entry
Reallocated singl_function (elt_size=4) to 100 items from 50.
Reallocated wiz_functions (elt_size=4) to 9000 items from 6000.
apsrev4-2.bst 2019-01-14 (MD) hand-edited version of apsrev4-1.bst
Control: key (0) 
Control: author (72) initials jnrlst
Control: editor formatted (1) identically to author
Control: production of article title (-1) disabled
Control: page (0) single
Control: year (1) truncated
Control: production of eprint (0) enabled
Warning--empty year in noauthor_gene_nodate
You've used 46 entries,
            6079 wiz_defined-function locations,
            1996 strings with 25983 characters,
and the built_in function-call counts, 48538 in all, are:
= -- 3644
> -- 1234
< -- 257
+ -- 399
- -- 294
* -- 7196
:= -- 4586
add.period$ -- 46
call.type$ -- 46
change.case$ -- 185
chr.to.int$ -- 45
cite$ -- 49
duplicate$ -- 4225
empty$ -- 3408
format.name$ -- 728
if$ -- 10078
int.to.chr$ -- 2
int.to.str$ -- 54
missing$ -- 690
newline$ -- 190
num.names$ -- 135
pop$ -- 1743
preamble$ -- 1
purify$ -- 229
quote$ -- 0
skip$ -- 2288
stack$ -- 0
substring$ -- 1374
swap$ -- 4058
text.length$ -- 140
text.prefix$ -- 0
top$ -- 8
type$ -- 653
warning$ -- 1
while$ -- 135
width$ -- 0
write$ -- 417
(There was 1 error message)
