\relax 
\citation{beidler_demonstration_2021,canik_reduced_2007,canik_experimental_2007}
\citation{landreman_magnetic_2022,bader_2020}
\citation{geiger_observation_2019,xanthopoulos_turbulence_2020,klinger_overview_2019}
\citation{mynick_optimizing_2010,xanthopoulos_controlling_2014,hegna_theory_2018,terry_2018}
\citation{anderson_helically_2018}
\newlabel{FirstPage}{{}{1}{}{}{}}
\@writefile{toc}{\contentsline {title}{Optimizing the HSX Stellarator for Microinstability by Coil-Current Adjustments}{1}{}}
\citation{canik_experimental_2007,canik_reduced_2007}
\citation{guttenfelder_effect_2008,faber_gyrokinetic_2015}
\citation{proll_tem_2016}
\citation{kumar_radial_2018,roberg-clark_2022}
\@writefile{toc}{\contentsline {abstract}{Abstract}{2}{}}
\newlabel{sec:introduction}{{I}{2}{}{}{}}
\@writefile{toc}{\contentsline {section}{\numberline {I}Introduction }{2}{}}
\citation{paul_adjoint_2019,landreman_magnetic_2022,wechsung_single-stage_2022}
\citation{kadomtsev_trapped_1971,adam_destabilization_1976,catto_trapped_1978,proll_resilience_2012,helander_collisionless_2013}
\citation{proll_resilience_2012,helander_theory_2014}
\citation{hegna_local_2000,hegna_2015}
\newlabel{sec:database_metrics}{{II}{4}{}{}{}}
\@writefile{toc}{\contentsline {section}{\numberline {II}Database Metrics }{4}{}}
\citation{hegna_2015}
\citation{faber_gyrokinetic_2015,proll_tem_2016}
\@writefile{lof}{\contentsline {figure}{\numberline {1}{\ignorespaces A magnetic field-line plot in the QHS equilibrium, centered about the outboard mid-plane at $\alpha = 0$. The magnetic field strength and curvature drive are plotted in blue and orange, respectively, each as a function of the poloidal angle in PEST coordinates. The component of the curvature drive that scales with $\kappa _n$ is shown along the dotted orange line, demonstrating that the sign of $C_d$ is determined primarily by $\kappa _n$. }}{5}{}}
\newlabel{fig:curvature_drive}{{1}{5}{}{}{}}
\newlabel{eq:curve_drive}{{1}{5}{}{}{}}
\newlabel{eq:F_kappa}{{4}{6}{}{}{}}
\newlabel{eq:G_psi}{{5}{6}{}{}{}}
\citation{boozer_guiding_1980}
\citation{hirshman_steepestdescent_nodate}
\newlabel{eq:QHS_metric}{{6}{7}{}{}{}}
\newlabel{sec:database}{{III}{7}{}{}{}}
\@writefile{toc}{\contentsline {section}{\numberline {III}HSX Coil-Current Database }{7}{}}
\@writefile{lof}{\contentsline {figure}{\numberline {2}{\ignorespaces The magnetic-field strength along the last closed flux surface of the standard QHS equilibrium is shown in color, with the vacuum vessel shown in gray covering one field period. Surrounding the vessel are the main coils shown in red and the auxiliary coils shown in yellow. }}{8}{}}
\newlabel{fig:lcfs_wCoils}{{2}{8}{}{}{}}
\@writefile{lof}{\contentsline {figure}{\numberline {3}{\ignorespaces Radially averaged flux-surface expansion $\mathcal  {C}_{n}/|\mathcal  {C}_{n}^*|$ and magnetic-field curvature $\mathcal  {B}_{\kappa }/|\mathcal  {B}_{\kappa }^*|$ metrics for all configurations in the database, with the helical-symmetry ratio $\mathcal  {Q} / \mathcal  {Q}^*$ shown in color and the QHS configuration denoted with the black star. There exists a valley of configurations with relatively good helical symmetry that spans the set of configurations that exhibit a modified distribution of $\kappa _n$ over their flux surfaces. }}{9}{}}
\newlabel{fig:database}{{3}{9}{}{}{}}
\@writefile{lof}{\contentsline {figure}{\numberline {4}{\ignorespaces The elongation ratio $\mathcal  {K}/\mathcal  {K}^*$ and triangularity ratio $\delta /\delta ^*$ are shown as functions of $\mathcal  {B}/|\mathcal  {B}_{\kappa }|$ and $\mathcal  {C}_n/|\mathcal  {C}_n|$, with the symmetry breaking ratio shown in color. It can be observed that both elongation and triangularity are well correlated with the TEM metrics in HSX equilibria. }}{10}{}}
\newlabel{fig:geom_comp}{{4}{10}{}{}{}}
\citation{landreman_new_2013,landreman_comparison_2014}
\citation{landreman_comparison_2014}
\citation{kumar_radial_2018}
\@writefile{lof}{\contentsline {figure}{\numberline {5}{\ignorespaces Poloidal cross-sections at $\zeta =0,$ $\pi /8$, and $\pi /4$ for three different configurations. QHS is shown in (b), and the configurations with small and large elongation ratios are shown in (a) and (c), respectively. The triangularity of these configurations also increases from (a) to (c). }}{11}{}}
\newlabel{fig:cross_section}{{5}{11}{}{}{}}
\newlabel{sec:neoclassical}{{IV}{11}{}{}{}}
\@writefile{toc}{\contentsline {section}{\numberline {IV}Neoclassical Analysis }{11}{}}
\citation{landreman_comparison_2014}
\citation{lore_internal_2010,spong_generation_2005}
\@writefile{lof}{\contentsline {figure}{\numberline {6}{\ignorespaces Profile data used as input in the SFINCS simulations: (a) the electron and ion density and (b) the electron and ion temperature. }}{12}{}}
\newlabel{fig:profiles}{{6}{12}{}{}{}}
\citation{talmadge_local_1996}
\citation{talmadge_local_1996}
\citation{Johnson_1967}
\@writefile{lof}{\contentsline {figure}{\numberline {7}{\ignorespaces Flux-surface-averaged neoclassical heat flux as a function of elongation at four different radial positions, calculated using the SFINCS code. The QHS configuration is shown as the black star, and the helical-symmetry ratio is shown in color. Configurations with $\mathcal  {K}/\mathcal  {K}^* \leq 1.05$ are observed to have similar or lower heat fluxes compared to QHS. }}{13}{}}
\newlabel{fig:sfincs}{{7}{13}{}{}{}}
\newlabel{sec:experiment_viability}{{V}{13}{}{}{}}
\@writefile{toc}{\contentsline {section}{\numberline {V}Considerations on HSX Experimental Viability }{13}{}}
\citation{waelbroeck_theory_2009}
\@writefile{lof}{\contentsline {figure}{\numberline {8}{\ignorespaces Magnetic-well depth as a function of elongation ratio of the 100 selected configurations. Panels (a)--(d) correspond to four different radial positions in the plasma, with the QHS configuration denoted by the black star. Configurations with large elongation ratio also exhibit increased magnetic-well depth. }}{14}{}}
\newlabel{fig:well}{{8}{14}{}{}{}}
\@writefile{lof}{\contentsline {figure}{\numberline {9}{\ignorespaces The rotational transform $\sout {\iota }$, plotted against the elongation ratio for the 100 selected configurations. Plots (a)--(d) correspond to four different radial positions in the plasma, with the QHS configuration denoted by the black star. The horizontal lines represent the dominant low-order rationals that can produce large magnetic islands in HSX geometries. At low and high elongation ratios, special care must be taken to avoid the $4/4$ and $8/7$ resonances, respectively. }}{15}{}}
\newlabel{fig:iota}{{9}{15}{}{}{}}
\citation{jenko_electron_2000,noauthor_gene_nodate}
\citation{xanthopoulos_geometry_2009}
\citation{faber_2018,Smoniewski}
\@writefile{lof}{\contentsline {figure}{\numberline {10}{\ignorespaces (a) Poincar\'e plot of a low-elongation configuration at a toroidal angle of $\pi /4$. (b) Rotational transform profile, with horizontal lines marked $4/4$ and $16/17$ to indicate rational surfaces. In low elongation configurations, a prominent $4/4$ island chain will often be present. }}{16}{}}
\newlabel{fig:poin_4/4}{{10}{16}{}{}{}}
\newlabel{sec:gyrokinetics}{{VI}{16}{}{}{}}
\@writefile{toc}{\contentsline {section}{\numberline {VI}Gyrokinetic Analysis }{16}{}}
\citation{canik_experimental_2007,kumar_radial_2018}
\@writefile{lof}{\contentsline {figure}{\numberline {11}{\ignorespaces (a) Poincar\'e plot of a high-elongation configuration at a toroidal angle of $\pi /4$. (b) Rotational transform profile, with horizontal lines marked $8/7$, $12/10$, and $16/13$ to indicate rational surfaces. In high elongation configurations, the $8/7$ resonance can be avoided in the core by allowing for a narrow layer of stochasticity at the plasma edge due to the $12/10$ and $16/13$ resonant surfaces. }}{17}{}}
\newlabel{fig:poin_8/7}{{11}{17}{}{}{}}
\citation{faber_gyrokinetic_2015}
\citation{faber_gyrokinetic_2015}
\citation{faber_gyrokinetic_2015,faber_2018}
\@writefile{lof}{\contentsline {figure}{\numberline {12}{\ignorespaces (a) Growth rate and (b) real frequency vs.\nobreakspace  {}elongation for the fastest growing mode at four different binormal wavenumbers. All modes are shown to propagate in the electron diamagnetic direction, and growth rates decrease with increasing elongation. }}{19}{}}
\newlabel{fig:gene_data}{{12}{19}{}{}{}}
\newlabel{sec:conclusion}{{VII}{19}{}{}{}}
\@writefile{toc}{\contentsline {section}{\numberline {VII}Conclusions }{19}{}}
\citation{hegna_local_2000,hegna_2015}
\@writefile{toc}{\contentsline {section}{\numberline {}Acknowledgments}{21}{}}
\@writefile{toc}{\appendix }
\newlabel{appdx:particle_drift}{{A}{21}{}{}{}}
\@writefile{toc}{\contentsline {section}{\numberline {A}Bounce-Averaged Particle Drift }{21}{}}
\newlabel{eq:gener_drift}{{A1}{21}{}{}{}}
\newlabel{eq:adiabatic_invariant}{{A2}{21}{}{}{}}
\newlabel{eq:B_dot_Del_eta}{{A3}{21}{}{}{}}
\citation{hegna_2015}
\citation{hegna_local_2000}
\newlabel{eq:adiabatic_invariant_red1}{{A4}{22}{}{}{}}
\newlabel{eq:dJ_dPsi}{{A5}{22}{}{}{}}
\newlabel{eq:dJ_dK}{{A6}{22}{}{}{}}
\newlabel{eq:substitutions}{{A7}{22}{}{}{}}
\newlabel{eq:dJ_dPsi_red1}{{A8}{22}{}{}{}}
\citation{Luce_2013}
\newlabel{appdx:elongation}{{B}{23}{}{}{}}
\@writefile{toc}{\contentsline {section}{\numberline {B}Flux-Surface Elongation }{23}{}}
\newlabel{eq:elongation}{{B1}{23}{}{}{}}
\newlabel{appdx:triangularity}{{C}{23}{}{}{}}
\@writefile{toc}{\contentsline {section}{\numberline {C}Helical Triangularity }{23}{}}
\bibdata{paper_revisionNotes,../paper_bib}
\bibcite{beidler_demonstration_2021}{{1}{2021}{{Beidler\ \emph  {et~al.}}}{{Beidler \emph  {et~al.}}}}
\bibcite{canik_reduced_2007}{{2}{2007{}}{{Canik\ \emph  {et~al.}}}{{Canik, Anderson, Anderson, Clark, Likin, Talmadge,\ and\ Zhai}}}
\bibcite{canik_experimental_2007}{{3}{2007{}}{{Canik\ \emph  {et~al.}}}{{Canik, Anderson, Anderson, Likin, Talmadge,\ and\ Zhai}}}
\bibcite{landreman_magnetic_2022}{{4}{2022}{{Landreman\ and\ Paul}}{{}}}
\bibcite{bader_2020}{{5}{2020}{{Bader\ \emph  {et~al.}}}{{Bader \emph  {et~al.}}}}
\bibcite{geiger_observation_2019}{{6}{2019}{{Geiger\ \emph  {et~al.}}}{{Geiger \emph  {et~al.}}}}
\bibcite{xanthopoulos_turbulence_2020}{{7}{2020}{{Xanthopoulos\ \emph  {et~al.}}}{{Xanthopoulos \emph  {et~al.}}}}
\bibcite{klinger_overview_2019}{{8}{2019}{{Klinger\ \emph  {et~al.}}}{{Klinger \emph  {et~al.}}}}
\bibcite{mynick_optimizing_2010}{{9}{2010}{{Mynick\ \emph  {et~al.}}}{{Mynick, Pomphrey,\ and\ Xanthopoulos}}}
\bibcite{xanthopoulos_controlling_2014}{{10}{2014}{{Xanthopoulos\ \emph  {et~al.}}}{{Xanthopoulos \emph  {et~al.}}}}
\bibcite{hegna_theory_2018}{{11}{2018}{{Hegna\ \emph  {et~al.}}}{{Hegna, Terry,\ and\ Faber}}}
\bibcite{terry_2018}{{12}{2018}{{Terry\ \emph  {et~al.}}}{{Terry, Faber, Hegna, Mirnov, Pueschel,\ and\ Whelan}}}
\newlabel{eq:triangularity}{{C1}{24}{}{}{}}
\@writefile{toc}{\contentsline {section}{\numberline {}References}{24}{}}
\bibcite{anderson_helically_2018}{{13}{1995}{{Anderson\ \emph  {et~al.}}}{{Anderson, Almagri, Anderson, Matthews, Talmadge,\ and\ Shohet}}}
\bibcite{guttenfelder_effect_2008}{{14}{2008}{{Guttenfelder\ \emph  {et~al.}}}{{Guttenfelder, Lore, Anderson, Anderson, Canik, Dorland, Likin,\ and\ Talmadge}}}
\bibcite{faber_gyrokinetic_2015}{{15}{2015}{{Faber\ \emph  {et~al.}}}{{Faber, Pueschel, Proll, Xanthopoulos, Terry, Hegna, Weir, Likin,\ and\ Talmadge}}}
\bibcite{proll_tem_2016}{{16}{2016}{{Proll\ \emph  {et~al.}}}{{Proll, Mynick, Xanthopoulos, Lazerson,\ and\ Faber}}}
\bibcite{kumar_radial_2018}{{17}{2018}{{Kumar\ \emph  {et~al.}}}{{Kumar, Dobbins, Talmadge, Wilcox,\ and\ Anderson}}}
\bibcite{roberg-clark_2022}{{18}{2022}{{Roberg-Clark\ \emph  {et~al.}}}{{Roberg-Clark, Plunk,\ and\ Xanthopoulos}}}
\bibcite{paul_adjoint_2019}{{19}{2019}{{Paul\ \emph  {et~al.}}}{{Paul, Abel, Landreman,\ and\ Dorland}}}
\bibcite{wechsung_single-stage_2022}{{20}{2022}{{Wechsung\ \emph  {et~al.}}}{{Wechsung, Giuliani, Landreman, Cerfon,\ and\ Stadler}}}
\bibcite{kadomtsev_trapped_1971}{{21}{1971}{{Kadomtsev\ and\ Pogutse}}{{}}}
\bibcite{adam_destabilization_1976}{{22}{1976}{{Adam\ \emph  {et~al.}}}{{Adam, Tang,\ and\ Rutherford}}}
\bibcite{catto_trapped_1978}{{23}{1978}{{Catto\ and\ Tsang}}{{}}}
\bibcite{proll_resilience_2012}{{24}{2012}{{Proll\ \emph  {et~al.}}}{{Proll, Helander, Connor,\ and\ Plunk}}}
\bibcite{helander_collisionless_2013}{{25}{2013}{{Helander\ \emph  {et~al.}}}{{Helander, Proll,\ and\ Plunk}}}
\bibcite{helander_theory_2014}{{26}{2014}{{Helander}}{{}}}
\bibcite{hegna_local_2000}{{27}{2000}{{Hegna}}{{}}}
\bibcite{hegna_2015}{{28}{2015}{{Hegna}}{{}}}
\bibcite{boozer_guiding_1980}{{29}{1980}{{Boozer}}{{}}}
\bibcite{hirshman_steepestdescent_nodate}{{30}{1983}{{Hirshman\ and\ Whitson}}{{}}}
\bibcite{landreman_new_2013}{{31}{2013}{{Landreman\ and\ Ernst}}{{}}}
\bibcite{landreman_comparison_2014}{{32}{2014}{{Landreman\ \emph  {et~al.}}}{{Landreman, Smith, Mollén,\ and\ Helander}}}
\bibcite{lore_internal_2010}{{33}{2010}{{Lore\ \emph  {et~al.}}}{{Lore \emph  {et~al.}}}}
\bibcite{spong_generation_2005}{{34}{2005}{{Spong}}{{}}}
\bibcite{talmadge_local_1996}{{35}{1996}{{Talmadge\ and\ Cooper}}{{}}}
\bibcite{Johnson_1967}{{36}{1967}{{Johnson\ and\ Greene}}{{}}}
\bibcite{waelbroeck_theory_2009}{{37}{2009}{{Waelbroeck}}{{}}}
\bibcite{jenko_electron_2000}{{38}{2000}{{Jenko\ \emph  {et~al.}}}{{Jenko, Dorland, Kotschenreuther,\ and\ Rogers}}}
\bibcite{noauthor_gene_nodate}{{39}{}{{noa}}{{}}}
\bibcite{xanthopoulos_geometry_2009}{{40}{2009}{{Xanthopoulos\ \emph  {et~al.}}}{{Xanthopoulos, Cooper, Jenko, Turkin, Runov,\ and\ Geiger}}}
\bibcite{faber_2018}{{41}{2018}{{Faber\ \emph  {et~al.}}}{{Faber, Pueschel, Terry, Hegna,\ and\ Roman}}}
\bibcite{Smoniewski}{{42}{2021}{{Smoniewski\ \emph  {et~al.}}}{{Smoniewski, Sánchez, Calvo, Pueschel,\ and\ Talmadge}}}
\bibcite{Luce_2013}{{43}{2013}{{Luce}}{{}}}
\bibstyle{apsrev4-2}
\newlabel{LastBibItem}{{43}{26}{}{}{}}
\newlabel{LastPage}{{}{26}{}{}{}}
\gdef \@abspage@last{26}
